ThuggerDaily
…
\[
\text{Sentiment Score}_{(Headline, Snippet, Article)} =\\ \begin{cases} 1 \times \text{Sentiment Score} & \text{if Sentiment = 'Positive'} \\-1 \times \text{Sentiment Score} & \text{if Sentiment = 'Negative'}\end{cases}
\]

Now we are giving more weight to the sentiment shown in the headlines than the sentiment shown in description or article as most people form opinion about a subject from reading than headlines alone, more over the articles are mostly paywalled in these websites so article are getting the least weight

\[
\text{Overall Sentiment Score} = \frac{0.4\times S_{Headlines}+0.35\times \times S_{Snippets}+0.25\times S_{Article}}{3}
\]

\[
\text{Overall Sentiment} = \begin{cases} Positive, \text{ Overall Sentiment Score}\geq0\\ Negative, \text{ Otherwise} \end{cases}
\]

# A tibble: 1,525 × 16
   publication_date headline snippet article `Search Term` links Source Keywords
   <date>           <chr>    <chr>   <chr>   <chr>         <chr> <chr>  <chr>   
 1 2017-09-24       tv youn… monday… easter… Young Thug    http… Washi… young t…
 2 2022-01-14       watch f… chilli… easter… Gunna         http… Washi… gunna   
 3 2017-04-25       tv tale… wednes… easter… Young Thug    http… Washi… young t…
 4 2015-10-01       biii x … abound… click … YSL           http… Washi… shannon…
 5 2022-05-10       tuesday… catch   day qu… Young Thug    http… Washi… young t…
 6 2015-12-09       good sp… brookl… spotli… Young Thug    http… Washi… young t…
 7 2014-10-24       filmgoe… mind w… old bo… Young Thug    http… Washi… young t…
 8 2014-03-16       sxsw de… music … zen ga… Young Thug    http… Washi… young t…
 9 2014-04-29       review … new he… new he… Young Thug    http… Washi… young t…
10 2015-04-30       good mu… new he… new he… Young Thug    http… Washi… young t…
# ℹ 1,515 more rows
# ℹ 8 more variables: score_headline <dbl>, Sentiment_headline <chr>,
#   score_snippet <dbl>, Sentiment_snippet <chr>, score_article <dbl>,
#   Sentiment_article <chr>, overall_sentiment_score <dbl>,
#   overall_sentiment <chr>
